{
  "images" : [
    {
      "idiom" : "universal",
      "filename" : "ligature-symbols_2-11-0_delete_29_0_ecf0f1_none.png",
      "scale" : "1x"
    },
    {
      "idiom" : "universal",
      "filename" : "ligature-symbols_2-11-0_delete_56_0_ecf0f1_none.png",
      "scale" : "2x"
    },
    {
      "idiom" : "universal",
      "filename" : "ligature-symbols_2-11-0_delete_84_0_ecf0f1_none.png",
      "scale" : "3x"
    }
  ],
  "info" : {
    "version" : 1,
    "author" : "xcode"
  }
}